…
```r
dim(activity)
```

```
## [1] 17568     3
```

```r
activity
```

```
## # A tibble: 17,568 x 3
##    steps date       interval
##    <dbl> <date>        <dbl>
##  1    NA 2012-10-01        0
##  2    NA 2012-10-01        5
##  3    NA 2012-10-01       10
##  4    NA 2012-10-01       15
##  5    NA 2012-10-01       20
##  6    NA 2012-10-01       25
##  7    NA 2012-10-01       30
##  8    NA 2012-10-01       35
##  9    NA 2012-10-01       40
## 10    NA 2012-10-01       45
## # ... with 17,558 more rows
```
…
## Problem #2: What is mean total number of steps taken per day?

### SubProblem #2.1: Calculate the total number of steps taken per day


```r
activity_bydate <- group_by(activity,date)
activity_bydate <- filter(activity_bydate, !is.na(steps))
activity_bydate_sumsteps <- summarize(activity_bydate,stepSumsByDay=sum(steps))
activity_bydate_sumsteps
```

```
## # A tibble: 53 x 2
##    date       stepSumsByDay
##    <date>             <dbl>
##  1 2012-10-02           126
##  2 2012-10-03         11352
##  3 2012-10-04         12116
##  4 2012-10-05         13294
##  5 2012-10-06         15420
##  6 2012-10-07         11015
##  7 2012-10-09         12811
##  8 2012-10-10          9900
##  9 2012-10-11         10304
## 10 2012-10-12         17382
## # ... with 43 more rows
```
…
### SubProblem #4.4: Make a histogram of the total number of steps taken each day and Calculate and report the mean and median total number of steps taken per day. Do these values differ from the estimates from the first part of the assignment? What is the impact of imputing missing data on the estimates of the total daily number of steps?


```r
activity_imputed_bydate <- group_by(activity_imputed,date)
activity_imputed_bydate_sumstepsY <- summarize(activity_imputed_bydate,stepSumsByDay=sum(stepsY))
activity_imputed_bydate_sumstepsY
```

```
## # A tibble: 61 x 2
##    date       stepSumsByDay
##    <date>             <dbl>
##  1 2012-10-01         9975.
##  2 2012-10-02          126 
##  3 2012-10-03        11352 
##  4 2012-10-04        12116 
##  5 2012-10-05        13294 
##  6 2012-10-06        15420 
##  7 2012-10-07        11015 
##  8 2012-10-08         9975.
##  9 2012-10-09        12811 
## 10 2012-10-10         9900 
## # ... with 51 more rows
```
…
